global modifier id Not Found,13199346
global modifier id Not Found,13199346
global modifier id Not Found,13199346
global modifier id Not Found,13199346
global modifier id Not Found,13199346
global modifier id Not Found,13199346
global modifier id Not Found,13199346
global modifier id Not Found,13199346
global modifier id Not Found,13199346
global modifier id Not Found,13199346
global modifier id Not Found,13199346
global modifier id Not Found,13199346
global modifier id Not Found,13199346
global modifier id Not Found,13199346
global modifier id Not Found,13199346
global modifier id Not Found,13199346
global modifier id Not Found,13199346
global modifier id Not Found,13199346
global modifier id Not Found,13199346
global modifier id Not Found,13199346
global modifier id Not Found,13199346
global modifier id Not Found,13199346
global modifier id Not Found,13199346
global modifier id Not Found,13199346
global modifier id Not Found,13199346
global modifier id Not Found,13199346
global modifier id Not Found,13199346
global modifier id Not Found,13199346
global modifier id Not Found,13199346
global modifier id Not Found,13199346
463090d3-15b3-4140-b082-19635ef46b32,13199346
675a2d9b-d737-4d2a-98a2-894178751926,13199346
a8c9efe4-cc00-43c9-a240-548b18400638,13199346
f7d151f2-b6c6-467a-93ca-441ad064ecaa,13199346
db54deb1-88df-4c28-8d93-81a36c825c2d,13199346
df4bee02-bd55-45c0-bb72-d5deb8e52ad7,13199346
26cd27da-635e-4195-bda5-ae77ffee4473,13199346
0a3c8b09-b0f3-44b4-b1fa-b915aea5d211,13199346
23c670bd-c2a1-4566-858a-56a9583ddf8d,13199346
f6a81c30-b265-418a-8c72-4a50210aeb90,13199346
dc91d8f5-7be9-4d52-9e81-ef5e65ed2fc5,13199346
2346cfb0-5dce-434e-9579-6323bb7db6a2,13199346
7d1ba500-4fc6-46db-9565-eecf3e2e9a1f,13199346
b6164280-edc2-4b4a-893e-39394eea7ff0,13199346
4a50d68f-8904-4134-91cc-e784ba7a6a97,13199346
51001aea-ad5c-4d81-8511-7770a8d70507,13199346
0ca54c50-376c-4a38-80f9-31c4e1ccde8f,13199346
f44b2c58-c2c8-4ad7-92d4-42e685a95363,13199346
75876cd9-d48f-4022-851e-adfaa4bf282f,13199346
7637e601-ae44-4bf1-a95e-867d838a3385,13199346
